1.002 0.999
-0.177 -0.606
-0.524 0.294
0.042 -0.512
0.218 0.245
0.655 -0.609
0.505 0.350
0.211 -0.903
-0.033 -0.326
0.028 -0.378
-0.244 -0.531
1.009 1.011
-0.690 0.193
0.691 -0.208
-0.067 0.284
0.418 0.047
-0.487 -0.278
0.195 -0.525
-0.119 -0.681
-0.894 0.126
