-1.003 -0.988
-0.021 -0.346
-0.910 0.175
-0.254 0.030
0.271 -0.028
-0.352 -0.028
-0.428 -0.588
-0.371 0.276
0.110 0.627
-0.097 0.256
-0.349 -0.170
-0.989 -1.013
-0.213 -0.021
-0.069 0.269
0.091 0.554
-0.343 -0.801
-0.445 -0.815
-0.192 0.207
-0.632 -0.361
0.065 0.194
