0.993 1.006
-0.198 0.008
-0.272 0.415
-0.701 0.115
-0.621 0.348
-0.736 0.423
0.205 -0.086
0.197 -0.493
0.021 0.133
-0.229 0.473
-0.153 0.014
1.003 1.008
0.758 0.188
-0.532 -0.066
-0.028 -0.239
0.336 0.164
-0.051 0.326
-0.693 -0.810
0.083 0.082
-0.077 -0.837
