-0.998 -1.003
-0.356 -0.235
-0.128 0.266
0.563 0.489
0.043 0.716
0.601 0.423
0.167 -0.271
0.031 -0.017
0.282 -0.143
-0.360 -0.354
-0.129 0.107
-0.995 -0.991
0.227 -0.849
-0.179 -0.358
-0.702 -0.364
0.538 0.178
0.094 0.087
-0.418 0.010
-0.017 0.486
-0.553 -0.152
