-0.994 -1.012
-0.399 -0.517
0.060 -0.543
-0.364 -0.583
0.175 0.082
-0.252 0.417
-0.551 0.119
0.270 -0.150
0.469 -0.539
-1.289 0.512
-0.023 0.321
-0.984 -0.996
-0.642 0.789
0.729 0.238
0.071 -0.691
-0.179 -0.512
-0.426 -0.377
-0.244 -0.175
0.134 -0.225
0.136 0.198
