-0.992 -1.014
-0.311 -0.142
-0.174 -0.209
0.322 -0.301
-0.206 0.419
0.697 -0.546
0.129 -0.096
0.269 0.995
-0.550 0.702
-0.566 0.140
0.747 -0.587
-0.999 -0.999
-0.602 0.285
-0.347 -0.214
0.716 0.181
-1.687 0.117
0.411 0.508
0.039 -0.236
-0.491 0.281
-0.170 0.590
