-1.008 -0.978
-0.661 0.520
-0.023 0.060
0.064 0.602
-0.408 0.562
0.089 -0.147
-0.011 0.088
-0.308 -0.019
-0.270 -0.153
0.641 -0.475
0.052 -0.359
-0.990 -1.023
-0.197 0.249
-0.057 0.338
0.780 0.624
-0.157 0.468
0.161 -0.005
-0.365 -0.363
0.915 0.274
0.056 -0.314
