0.994 0.985
0.011 0.652
0.262 0.159
-0.058 0.117
0.725 -0.904
-0.369 -0.013
0.040 -0.278
-0.392 0.337
-0.115 0.044
0.271 0.678
-0.135 -0.419
0.994 1.005
-0.013 0.048
-0.277 0.388
-0.853 0.431
-0.704 0.226
0.210 0.132
-0.302 -0.020
-0.337 1.190
-0.169 0.113
