0.991 1.000
-0.006 0.648
-0.027 -0.019
-0.283 0.800
0.146 0.336
0.669 -0.242
0.160 -0.144
0.311 0.461
-0.571 -0.533
0.015 0.222
0.424 -0.293
1.004 1.007
-0.399 0.582
0.686 0.537
-0.294 0.103
-0.161 -0.695
0.240 -0.258
-0.058 -0.654
0.290 0.317
-0.430 0.128
