-1.010 -1.010
-0.232 -0.739
0.037 0.886
-0.158 -0.227
0.263 0.606
-0.557 -0.041
-0.466 0.422
-0.611 -0.095
0.169 -0.377
-0.382 0.149
0.044 0.048
-0.998 -1.004
-0.262 0.755
0.541 -1.553
-0.902 0.024
-0.084 -0.405
-0.116 0.494
-0.373 0.304
-0.167 0.269
0.103 -0.394
