1.006 1.006
0.203 0.877
-0.258 0.796
0.171 -0.307
-0.035 -0.412
-0.690 0.623
-0.027 -0.135
-0.144 0.412
-0.421 0.510
-0.212 0.127
0.730 0.886
1.009 1.001
0.264 0.319
0.048 -0.336
-0.747 -0.039
-0.203 -0.479
0.003 -0.121
0.375 0.065
0.596 0.184
-0.324 0.319
