-1.003 -1.021
-0.081 0.351
-0.594 0.295
0.397 0.911
-0.063 -0.711
-0.420 0.106
-0.720 0.372
0.323 -0.136
0.011 0.133
0.102 0.290
0.047 -0.145
-1.002 -1.007
0.885 -0.948
0.564 -0.350
-0.661 -0.514
0.536 0.002
0.290 0.833
0.008 -0.153
-0.053 -0.133
-0.892 0.027
