-0.988 -1.001
0.658 -0.317
0.290 0.065
-0.471 0.478
0.339 0.273
-0.261 -0.226
-0.391 -0.102
0.290 -0.233
0.030 0.756
-0.342 -0.641
-0.367 -0.152
-1.011 -1.002
-0.085 -0.591
-0.106 -0.864
-0.133 -0.390
0.054 0.730
0.027 -0.694
-0.096 0.063
-0.904 0.321
-0.183 -0.898
