-0.983 -0.992
0.238 -0.545
-0.256 0.894
0.403 -0.458
-0.268 0.435
-0.007 -0.070
-0.273 -0.479
-0.408 0.185
-0.182 0.243
0.011 -0.128
-0.165 0.365
-1.003 -1.001
-0.301 0.604
0.627 0.563
0.051 0.272
0.367 -0.094
-0.021 -0.441
-0.328 -0.161
-0.111 0.753
-0.411 0.974
