1.006 1.003
0.932 0.098
-0.350 -0.250
-0.103 -0.525
0.180 -0.271
-0.473 -0.442
0.493 0.218
-0.419 -0.458
-0.309 -0.261
-0.038 0.648
-0.125 0.591
0.991 1.002
0.268 -0.341
-0.104 0.453
-0.471 -0.109
-0.169 -0.295
0.335 0.012
-0.249 0.538
-0.280 -0.437
0.014 -0.248
