-1.003 -0.998
-0.322 -0.152
0.258 0.530
0.661 -0.402
0.281 -0.387
-0.309 0.058
0.411 -0.700
-0.250 0.245
0.208 -0.597
0.622 0.861
-0.002 -0.102
-1.010 -0.987
-1.079 -0.150
-0.286 -0.316
-0.357 -0.617
0.037 0.616
-0.208 0.100
-0.406 0.665
-0.058 0.136
-0.026 0.183
