-1.020 -1.006
-0.283 -0.693
-0.077 -0.597
0.463 -0.431
-0.404 -0.348
0.493 -0.839
0.173 0.398
-0.495 0.558
0.030 0.709
0.739 -0.215
-0.196 -0.354
-0.998 -1.014
0.144 0.096
-0.583 -0.535
-0.406 0.341
-0.679 -0.746
-0.400 0.493
-0.148 0.130
-0.773 0.818
-0.182 -0.024
