1.021 1.014
-0.115 0.294
-0.263 -0.040
0.105 -0.208
-0.183 0.425
0.143 -0.661
0.385 0.087
0.162 0.230
1.256 0.166
1.229 -0.340
0.201 -0.168
1.007 0.990
0.374 0.170
-0.506 -0.144
-0.510 1.112
0.403 0.678
-0.231 -0.429
0.173 0.795
0.322 -0.032
0.420 0.840
