0.983 0.995
-0.482 -0.103
-1.084 0.055
-0.405 0.204
0.209 0.097
-0.592 -0.327
-0.012 -0.503
-0.006 -0.598
-0.032 -0.354
-0.048 -0.067
-0.075 -0.524
1.008 1.001
-0.275 0.454
0.829 0.548
0.044 -0.853
0.256 0.233
0.633 0.423
-0.651 0.164
-0.610 0.081
-0.375 0.200
