-1.008 -1.005
-0.031 0.471
0.670 0.020
0.232 0.144
0.158 0.561
0.709 -0.833
-0.286 0.342
-0.056 -0.622
-0.842 -0.513
0.122 -0.106
-0.512 -0.049
-0.990 -0.987
-0.645 -0.197
-0.228 -0.019
-0.194 0.366
-0.241 0.182
0.175 -0.173
0.307 0.091
0.567 -0.093
-0.133 0.325
