-0.997 -0.992
-0.749 0.121
0.404 0.591
0.080 1.188
-0.536 -0.635
0.345 0.019
0.012 0.566
0.592 0.642
0.784 -0.851
0.724 0.102
-0.634 0.146
-0.988 -1.002
0.455 0.290
-0.508 0.451
0.146 -0.119
-0.574 -0.366
0.043 -0.258
-0.736 -0.413
-0.162 0.017
0.909 -0.163
