-0.986 -0.998
-0.419 0.545
0.120 -0.206
0.320 0.182
-0.429 0.680
0.277 -0.922
0.285 0.360
-0.105 0.055
-0.136 -0.207
-0.010 -0.010
-0.072 0.353
-0.999 -0.995
0.199 -0.521
-0.381 -0.354
0.036 0.575
0.103 -1.092
-0.144 -0.114
-0.630 0.069
-0.015 0.051
0.445 0.296
