-1.010 -0.997
0.052 -0.196
-0.442 0.212
0.194 -0.136
0.298 -0.177
-0.700 0.114
0.520 0.412
-0.004 0.585
-0.319 -0.085
-0.366 0.126
0.592 -0.313
-0.996 -1.010
-0.266 0.126
0.052 -0.515
0.255 -0.500
0.861 -0.046
0.240 -0.358
0.285 1.119
0.502 -0.104
-0.360 0.386
