-1.005 -0.992
-0.181 0.627
-0.607 -0.587
-0.638 0.918
-0.276 0.088
0.204 0.059
-0.103 0.201
0.157 -0.280
0.381 0.025
-0.176 0.260
0.657 0.115
-0.989 -0.999
0.412 -0.207
-0.599 0.234
0.127 -0.476
0.134 -0.425
0.110 0.032
-0.313 -0.799
-0.302 0.621
-0.264 -0.069
