0.995 1.020
0.403 0.734
0.163 -0.742
-0.152 -0.396
-0.273 0.475
-0.800 -0.530
0.039 0.155
-0.160 -0.254
-0.798 -0.612
-0.044 0.416
0.140 -0.404
0.989 1.004
-0.046 0.420
-0.925 0.060
-0.430 -0.330
-0.352 0.261
-0.069 -0.284
-0.222 0.596
0.795 -0.163
0.340 -0.328
