1.004 1.011
-0.579 0.057
0.560 0.726
0.262 0.037
-0.377 0.160
0.243 -0.748
0.516 0.211
0.734 0.658
-0.047 0.000
-0.036 -0.149
0.034 0.688
0.988 0.991
0.349 -0.229
0.737 -0.147
-0.112 -0.050
-0.613 -0.397
-0.556 -0.258
-0.766 -0.462
-0.109 0.440
0.174 -0.015
