1.007 0.987
-0.261 0.206
0.457 -0.444
-0.726 0.417
-0.533 -0.543
-0.461 0.036
0.457 -0.483
0.805 0.540
0.474 -0.314
0.257 -0.502
0.188 0.248
1.000 0.999
-0.264 -0.218
-0.156 0.658
-0.593 0.467
-0.389 -0.170
-0.590 -0.065
-0.207 0.684
-0.288 -0.215
-0.220 0.025
