-1.004 -0.999
0.437 0.858
-0.297 -0.678
0.224 0.298
0.356 -0.076
-0.392 -0.166
0.809 0.608
-0.212 0.299
0.018 0.079
-0.599 0.113
-0.575 0.216
-0.995 -1.000
0.083 0.487
0.153 -0.596
0.631 -0.013
-0.432 -0.322
1.105 0.449
-0.132 -0.542
-0.123 -0.345
0.036 -0.096
