-0.997 -0.995
0.300 0.404
-0.251 0.024
0.096 0.044
-0.379 0.373
0.183 0.284
-0.282 -0.125
0.153 0.004
0.225 -0.423
0.719 0.390
0.118 0.387
-1.006 -0.998
-0.442 -0.211
0.424 -0.001
0.491 -0.039
0.055 -0.064
-0.146 -0.023
0.348 -0.338
-0.250 0.234
0.024 0.003
