-1.000 -1.010
0.059 0.799
-0.038 0.711
-0.147 -0.375
-0.020 -0.160
0.025 -0.155
-0.204 -0.206
-0.231 -0.040
0.345 0.572
-0.112 0.269
0.401 -0.006
-0.995 -1.013
-0.544 0.357
0.414 -0.952
-0.415 0.037
-0.036 0.072
0.186 0.111
-0.149 -0.459
0.723 -0.074
-0.354 0.045
