1.021 1.002
0.347 0.390
-0.024 0.256
0.549 -0.315
0.121 -0.262
-0.267 -0.059
-0.185 0.008
-0.228 0.431
0.903 0.432
-0.490 0.223
-0.075 0.012
0.996 0.998
-0.337 -0.224
-0.260 -0.547
0.066 -0.633
0.411 0.013
0.415 -0.732
0.670 -0.028
0.421 0.413
-0.050 0.240
