-1.018 -1.016
-0.291 0.327
0.436 0.528
0.243 0.157
-0.135 0.854
0.024 -0.334
-0.408 0.188
0.415 0.054
-0.312 -0.325
-0.094 0.138
-0.157 -0.393
-1.008 -0.990
0.696 -0.134
0.694 0.437
0.208 -0.250
-0.072 0.609
-0.273 -0.374
0.526 -0.663
-0.247 -0.524
-0.212 0.057
