-1.008 -0.987
0.537 -0.387
0.544 0.001
0.564 0.167
-0.584 -0.026
-0.844 0.176
-0.669 0.215
-0.353 0.193
0.492 0.374
-0.226 -0.322
-0.160 0.460
-1.013 -0.996
-0.227 -0.309
0.565 -0.048
0.136 0.314
-0.215 0.021
0.208 -0.640
-0.823 -0.229
-0.822 -0.140
-0.574 0.292
