1.007 0.992
-0.315 -0.143
0.740 0.734
-0.184 -0.029
0.515 -0.325
-0.013 -0.597
-0.256 0.039
0.695 -0.246
0.402 0.167
-0.444 -0.729
-0.227 0.177
0.991 1.020
0.320 0.089
0.198 0.363
0.784 0.210
0.524 0.286
0.832 -0.153
0.193 0.327
0.182 -0.207
-0.567 -0.054
