1.023 1.000
-0.776 -0.266
0.358 -0.583
-0.099 -0.530
0.007 0.056
0.121 0.017
0.237 -0.258
-0.370 -1.045
-0.102 0.023
-0.178 -0.422
-0.545 0.151
1.003 0.986
0.227 -0.180
0.346 0.084
0.461 0.187
0.019 0.427
0.158 0.188
0.373 -0.592
-0.143 0.703
-0.652 0.206
