0.997 0.996
0.049 0.005
0.370 -0.189
-1.039 -0.238
0.448 0.118
0.345 -1.043
0.546 -0.018
-0.257 0.083
0.206 0.306
-0.258 -0.395
0.391 0.650
1.012 1.003
0.236 -0.475
0.177 0.450
0.043 0.353
0.343 0.840
-0.169 0.177
-0.145 0.054
0.695 -0.223
-0.127 0.185
