1.010 0.993
-0.217 0.349
0.114 -1.198
-0.028 -0.359
-0.042 0.270
0.337 0.034
0.234 -0.220
-0.272 -0.083
-0.034 -0.010
-0.516 0.449
-0.076 -0.505
0.986 0.986
-0.233 0.020
0.540 -0.065
-0.013 -0.088
0.246 -0.284
0.464 -0.289
-0.420 0.940
-0.181 0.180
-0.601 -0.081
