1.004 1.023
-0.132 -0.249
0.090 -0.105
-0.727 -0.023
-0.073 0.010
0.203 0.374
0.273 0.311
0.223 -0.187
-0.087 0.038
-0.306 -0.131
-0.239 0.628
1.009 1.016
0.221 0.299
0.708 0.107
0.541 -0.902
0.194 0.134
0.305 -0.740
-0.093 -0.385
-0.167 0.223
-0.126 0.033
