-1.001 -0.994
0.052 0.169
0.544 -0.222
0.005 0.197
0.169 0.334
-0.528 0.623
0.491 0.131
-0.558 -0.250
0.356 0.046
0.284 0.164
0.030 0.768
-1.022 -1.003
-0.175 0.287
0.798 0.504
-0.045 0.024
0.123 0.098
0.068 -0.482
0.151 0.384
0.551 0.296
-0.574 0.709
