0.990 1.001
-0.290 0.600
0.005 -0.327
0.548 0.003
-0.211 -0.223
-0.045 -0.355
-0.256 0.066
0.222 0.053
-0.687 -0.686
-0.095 -0.180
0.288 0.321
0.994 0.976
0.133 0.214
-0.704 -0.037
0.391 0.568
0.233 -0.580
0.870 0.068
0.061 -0.247
0.145 -0.207
0.307 -0.212
