0.988 0.998
0.031 -0.113
-0.781 0.047
-0.702 -0.463
-0.206 0.142
0.150 0.093
-0.189 -0.610
-0.602 0.288
-0.017 0.103
0.420 0.148
0.580 0.639
1.005 0.996
0.209 -0.306
-0.240 0.654
0.230 -0.403
-0.334 0.348
0.480 0.243
0.196 -1.611
0.262 -0.094
0.462 0.512
