-0.989 -1.003
-0.433 0.347
-0.134 -0.165
0.054 0.134
0.170 0.514
-0.015 0.235
-0.521 0.098
-0.212 -0.694
-0.165 0.111
0.348 -0.326
0.205 -0.559
-1.005 -1.007
0.283 0.784
0.340 0.139
-0.810 -0.375
0.332 1.081
0.538 -0.987
-0.146 -0.281
-0.039 -0.432
0.573 -0.062
