-1.016 -1.002
0.001 0.096
0.282 0.640
-0.389 -0.002
0.143 0.001
0.166 0.359
-0.066 0.662
-0.095 0.219
0.056 -0.680
0.071 0.089
-0.490 -0.004
-0.999 -1.014
-0.034 -0.173
-0.062 -0.486
-0.311 -0.170
-0.152 0.150
-0.059 -0.093
-0.383 0.074
-0.266 -0.442
-0.535 -0.129
