1.009 0.981
0.324 -0.069
-0.039 -0.102
0.191 0.463
-0.101 -0.315
0.566 -0.013
0.007 -0.202
-0.073 0.409
0.327 -0.851
0.566 0.105
0.149 -0.495
0.991 0.999
0.043 -0.212
0.163 -0.058
-0.787 -0.403
-0.389 0.192
0.334 -0.284
-0.150 0.098
-0.304 0.437
0.155 -0.280
