1.009 1.013
0.592 0.304
0.195 0.406
0.080 0.428
0.535 -0.053
-0.232 0.724
0.039 -0.056
0.074 -0.318
-0.232 -0.397
-0.181 -0.466
0.225 -0.213
1.001 1.006
-0.392 0.286
-0.391 0.071
0.609 -0.001
0.012 -0.094
0.081 0.151
-0.120 -0.249
-0.471 -0.010
-0.036 -0.085
