-0.988 -0.997
0.288 -1.178
-0.048 0.590
-0.292 -1.033
0.102 -0.488
-0.068 -0.261
0.528 0.498
0.333 -0.166
-0.516 0.801
-0.086 -0.239
0.147 -0.497
-1.003 -0.990
0.063 0.126
0.222 0.752
0.651 -0.449
-0.193 -0.754
-0.291 0.012
-0.134 0.023
0.117 0.113
0.708 -0.352
