-0.998 -0.998
0.775 -0.040
0.299 -0.346
-0.019 -0.086
-0.069 0.407
-0.246 0.092
-0.141 -0.396
-0.097 0.366
-0.150 -0.169
0.129 -0.623
-0.056 0.086
-1.005 -0.992
-0.303 -0.218
-0.239 -0.079
-0.072 -0.106
-0.265 -0.144
-0.149 -0.166
-0.454 0.169
-0.136 -0.477
-0.293 0.433
