0.991 0.991
-0.859 0.156
0.214 -0.470
0.083 -0.327
0.463 0.063
0.029 0.976
-0.249 0.284
0.759 0.485
0.459 0.152
0.015 -0.186
0.687 -0.034
0.998 1.004
0.610 -0.096
0.598 -0.187
-0.553 -0.075
-0.476 -0.185
0.612 -0.512
-0.515 -0.340
-0.413 -0.302
0.084 -0.329
