1.008 1.001
0.356 -0.662
-0.320 -0.514
-0.493 0.347
-0.098 0.115
-0.347 0.892
-0.264 0.131
0.030 0.563
-1.244 0.446
-0.246 -0.168
0.471 0.208
1.009 1.001
0.241 -0.277
0.328 -0.081
0.458 0.109
0.383 -0.104
-0.379 -0.386
0.143 -0.001
-0.168 -0.287
0.730 0.328
