-0.999 -0.997
-0.315 -0.216
0.196 0.445
-0.487 -0.176
-0.220 0.297
-0.311 0.060
0.386 -0.328
0.088 0.194
-0.280 -0.204
-0.622 0.672
0.214 -0.482
-1.004 -0.987
0.332 -0.744
0.456 -0.135
-0.143 0.099
0.408 0.938
-0.272 0.074
-0.025 0.636
0.367 0.318
0.225 0.344
