1.008 1.002
-0.232 -0.255
0.099 -0.123
-0.155 0.237
-0.110 0.076
0.238 -0.195
-0.283 -0.533
-0.395 -0.023
-0.139 0.001
-0.297 0.723
0.300 0.094
1.005 0.998
-0.097 -0.008
0.542 -0.072
-0.168 -0.507
0.126 0.525
0.193 0.099
0.239 -0.300
0.024 -0.451
0.051 -0.841
