-1.013 -1.009
0.535 -0.116
0.004 -0.330
0.247 -0.721
-0.124 -0.006
0.203 -0.099
-0.192 0.257
0.213 0.478
-0.015 -0.270
0.705 0.170
-0.746 -0.108
-0.997 -0.989
-0.835 -0.383
0.399 0.145
-0.296 0.424
-0.015 -0.090
0.283 -0.078
0.428 0.923
0.058 0.284
0.082 -0.129
