0.995 1.004
-0.359 -0.033
0.088 -0.179
0.336 0.260
-0.171 -0.685
0.350 -0.404
-0.062 -0.114
-0.209 0.636
0.091 -0.502
0.724 0.056
-0.870 0.069
0.998 1.003
-0.116 -0.440
-0.895 0.368
0.029 -0.031
0.174 0.144
0.139 -0.193
-0.084 -0.300
0.172 -0.668
-0.025 0.456
