1.018 0.994
0.003 -0.188
0.026 0.489
-0.371 0.023
-0.539 0.272
-0.405 0.087
-0.062 0.418
0.396 0.180
0.800 0.436
-0.159 0.055
-0.590 0.157
1.020 0.994
-0.004 -0.164
0.551 -0.103
0.509 0.558
-0.371 0.191
0.839 0.368
-0.208 0.066
-0.491 0.791
0.340 0.159
