1.006 0.994
0.466 -0.042
0.110 0.370
0.168 -0.285
0.304 -0.553
-0.215 0.104
-0.673 -0.089
-0.080 0.724
0.238 -0.567
-0.515 0.135
-1.344 -0.001
1.003 0.989
0.406 -0.090
-0.304 0.651
-0.195 0.373
-0.012 -0.556
0.111 -0.623
0.484 0.550
-0.479 -0.286
-0.453 0.140
