0.990 0.986
0.217 0.534
0.442 -0.797
-0.073 0.407
-0.121 0.193
0.105 0.731
-0.292 -0.047
-0.165 -0.278
-0.248 -0.260
0.268 0.044
0.067 -0.061
0.997 0.998
-0.150 0.450
0.385 0.556
0.029 -0.873
-0.008 -0.412
-0.462 0.144
0.429 -0.446
-0.570 -0.021
0.602 0.517
