1.023 0.994
-0.191 -0.223
0.357 -0.553
-0.188 -0.809
0.117 -0.358
-0.483 0.223
0.313 0.424
-0.536 -0.371
0.226 0.275
0.004 0.268
0.510 -0.399
0.996 0.988
-0.333 0.196
0.425 -0.082
0.071 0.416
0.041 0.323
0.374 0.600
-0.023 -0.113
-0.073 -0.062
0.246 -0.364
