0.995 1.005
-0.145 -0.172
-0.496 -0.158
0.526 -0.774
0.127 0.089
0.764 0.280
-0.700 -0.169
0.330 0.733
-0.318 -0.274
-0.411 -0.447
-0.202 0.006
1.009 1.005
0.163 0.340
0.234 -0.390
0.028 -0.226
0.079 -0.806
-0.667 0.042
-0.116 0.146
-0.048 -0.480
0.454 0.050
