-1.004 -1.014
-0.361 -0.440
-0.628 -0.256
-0.393 -0.211
0.282 -0.036
0.200 -0.328
-0.760 0.084
-0.168 -0.099
0.532 -0.022
-0.253 -0.121
-0.300 0.603
-1.005 -0.996
-0.354 0.046
0.242 0.354
0.162 -0.095
0.233 -0.659
-0.532 -0.976
-0.088 0.082
0.632 -0.756
0.161 -0.242
