0.000 0.000
0.000 0.000
0.000 0.000
0.000 0.000
0.000 0.000
0.000 0.000
0.000 0.000
0.000 0.000
-0.990 -0.997
0.000 0.000
0.000 0.000
0.000 0.000
0.000 0.000
-1.023 -1.004
0.000 0.000
0.000 0.000
0.000 0.000
0.000 0.000
0.000 0.000
0.000 0.000
