0.210 -0.409
-0.991 -1.010
-0.977 -1.007
-0.257 -0.088
-0.050 -0.024
0.253 -0.030
0.526 -0.313
-0.328 -0.721
0.579 0.194
-0.341 -0.057
-0.653 -0.255
0.341 0.313
-0.469 -0.435
-0.291 -0.850
-0.578 -0.326
-0.158 -0.259
-0.205 -0.234
0.538 -0.514
0.922 -0.521
0.550 -0.063
