0.499 -0.467
0.991 1.009
1.006 1.016
0.073 0.321
0.224 -0.338
-0.023 0.880
-0.066 0.763
-0.116 0.486
0.686 0.041
0.188 1.123
-0.082 0.199
0.085 0.169
0.520 -0.023
-1.551 0.202
-0.046 -0.473
0.232 0.448
0.044 -0.189
0.775 -0.443
-0.452 -0.115
-0.456 0.250
