-0.386 -0.246
-0.999 -1.004
-0.995 -0.991
0.847 0.359
-0.014 -0.349
-0.069 -0.201
-0.191 -0.056
0.560 -0.518
-0.032 -0.088
0.181 -0.651
0.034 -0.613
-0.096 0.724
-0.162 -0.200
-0.279 0.176
-0.430 0.246
-0.180 -0.261
-0.111 -0.449
0.682 0.641
0.405 0.250
0.161 0.332
