-0.101 -0.859
-1.013 -1.002
-1.018 -1.014
0.297 0.581
-0.169 -0.317
0.186 0.123
0.180 0.602
-0.497 -0.277
0.986 0.166
0.347 -0.489
0.775 0.599
-0.311 0.387
0.028 0.529
-0.387 0.028
-0.341 -0.113
0.470 -0.013
-0.114 -0.695
0.046 0.456
0.630 0.791
-0.182 -0.549
