-0.072 -0.078
-1.017 -1.009
-1.003 -0.983
0.126 -0.107
0.343 0.272
0.551 0.278
0.098 0.194
0.076 0.633
-0.169 0.477
-0.373 0.147
-0.349 -0.142
1.091 -0.185
-0.200 0.404
-0.004 -0.599
0.223 0.044
0.613 -0.430
-0.236 -0.028
-0.262 -0.331
-0.986 -0.317
0.394 0.425
