-0.167 0.194
1.001 0.988
0.999 0.991
-0.002 -0.008
0.267 -0.845
0.215 0.238
-0.191 0.303
-0.346 -0.511
-0.297 -0.047
0.232 0.027
0.474 -0.496
-0.493 0.204
-0.615 0.487
-0.780 -0.728
0.381 0.227
-0.051 -0.326
0.105 -0.630
0.358 -0.012
0.409 0.108
0.065 -0.393
