-0.268 0.546
1.006 1.016
1.004 0.991
0.416 0.379
-0.308 0.087
-0.481 0.336
-0.279 -0.116
-0.071 -0.650
-1.008 -0.097
0.186 0.041
-0.486 0.005
0.082 0.164
-0.288 -0.590
0.685 -0.143
0.119 -0.231
0.127 0.282
-1.348 0.119
0.138 -0.124
0.164 -0.263
-0.445 -0.049
