0.603 0.172
1.009 0.979
1.006 0.990
-0.073 -0.314
0.067 0.628
0.106 0.249
0.103 -0.025
0.518 0.224
-0.746 -0.060
0.634 0.049
0.657 -0.200
0.785 -0.082
-0.344 -0.435
-0.423 0.194
-1.030 -0.150
0.680 -0.306
-0.003 -0.192
0.133 0.083
0.249 0.179
-0.328 -0.620
