-0.873 -0.262
0.987 0.986
0.999 0.978
0.612 -0.173
0.710 0.447
-0.409 -0.039
-0.151 -0.761
0.528 0.523
-0.008 0.068
-0.127 0.709
-0.760 0.434
0.398 -0.105
0.024 0.677
0.031 -0.346
-0.269 0.264
0.396 0.601
-0.282 0.495
0.214 0.842
-0.143 -0.608
0.540 -0.088
