-0.059 0.099
1.005 1.008
0.999 1.003
-0.193 -0.511
-0.535 0.122
-0.142 -0.007
0.387 -0.310
-0.557 -0.413
-0.413 0.319
-0.081 0.643
-0.258 0.399
0.149 0.152
-0.054 0.074
0.633 -0.083
-0.893 0.092
0.093 -0.048
-0.171 -0.826
-0.780 -0.317
-0.311 -0.946
0.716 0.558
