0.313 0.546
-0.996 -0.994
-1.005 -1.002
0.159 -0.135
-0.541 0.125
-0.372 0.100
0.146 -0.165
0.346 -0.588
0.838 -0.523
0.057 -0.355
-0.638 -0.573
-0.873 -0.561
-0.639 0.207
0.074 0.230
-0.126 -0.281
0.325 0.303
-0.498 0.038
-0.307 0.529
0.896 -0.097
0.765 0.257
