0.152 0.081
-0.998 -1.001
-1.013 -1.006
-0.235 0.128
0.033 -0.251
-0.111 0.158
-0.176 -0.204
0.387 0.949
0.563 0.654
-0.629 -0.548
-0.053 -0.379
0.496 -0.562
0.533 0.462
0.051 0.408
-0.058 -0.127
-0.084 -0.232
-0.068 0.739
0.066 -0.459
0.823 -0.569
-0.010 0.088
