-0.044 1.005
1.006 1.002
1.000 1.011
-0.261 0.111
0.603 -0.291
0.675 -0.677
-0.657 -0.124
0.586 -0.102
0.293 0.020
-0.077 0.595
-0.093 0.160
0.336 0.140
0.242 0.661
0.102 -0.195
0.243 0.408
-0.083 0.039
0.885 -0.461
-0.216 0.209
0.574 0.415
0.275 -0.086
