0.944 -0.007
1.018 0.986
1.006 1.022
0.119 -0.004
0.045 -0.352
0.685 0.307
0.057 0.412
-0.853 0.430
0.576 -0.440
0.344 0.698
-0.283 -0.123
-0.364 0.100
0.536 0.604
0.201 0.532
0.086 -0.083
-0.292 0.407
-0.227 0.233
0.121 0.103
0.046 0.387
-0.464 0.278
