0.001 0.093
0.989 1.009
0.989 0.975
-0.464 -0.726
-0.860 -0.443
-0.032 0.747
-0.698 -0.121
-0.483 0.733
-0.634 -0.486
-0.232 0.380
0.723 0.065
-0.515 -0.571
0.315 0.396
0.208 -0.107
0.527 -0.138
0.010 -0.071
-0.497 0.612
-0.430 0.196
-0.148 -1.049
0.093 0.211
