0.063 -0.142
-1.009 -0.996
-0.994 -0.999
-0.146 0.273
-0.068 -0.091
-0.408 -0.395
0.505 -0.103
-0.167 -0.079
0.084 0.170
0.261 0.656
0.068 -0.031
0.619 0.591
-0.923 -1.065
0.014 0.291
-0.141 -0.152
-0.721 -0.570
0.672 0.112
-0.006 -0.716
-0.007 0.166
0.266 0.425
