-0.569 -0.131
0.996 1.004
1.005 1.001
0.051 0.153
-0.724 -0.373
-0.430 0.090
0.377 1.054
-0.670 0.387
-0.232 -0.530
-0.422 0.303
0.230 0.338
-0.551 -0.815
-0.084 -0.170
0.279 -0.088
-0.316 -0.517
1.097 -0.601
-0.072 -0.302
0.183 -0.267
-0.295 0.292
0.021 -0.311
