0.470 -0.087
1.005 1.007
1.002 1.024
-0.084 -0.055
0.456 0.060
0.525 -0.374
0.704 0.440
-0.044 -0.373
-0.066 0.153
0.436 0.668
0.746 -0.042
-0.277 -0.228
-0.309 -0.309
0.454 -0.285
0.039 0.398
-0.028 -0.173
0.043 -0.048
-0.143 -0.208
-0.467 -0.319
-0.063 0.475
