0.622 -0.419
-1.003 -1.027
-1.013 -0.994
-0.125 -0.319
-0.386 -0.437
-0.106 -0.111
0.441 -0.352
-0.342 0.709
0.083 -0.077
-0.263 0.342
0.044 -0.143
-0.460 0.187
-0.027 0.272
0.006 0.133
-0.696 -0.632
0.193 -0.481
-0.259 0.104
-0.216 0.501
0.559 0.143
0.511 0.031
