-0.777 -0.497
1.004 0.985
1.004 1.010
-0.543 0.353
-0.012 -0.290
-0.414 0.438
0.838 0.102
0.004 -0.246
0.211 0.611
-0.102 0.357
0.425 -0.067
0.630 0.196
-0.784 -0.224
-0.349 0.576
-0.061 0.341
-0.067 -0.062
-0.271 0.443
-0.309 0.400
-0.015 0.132
0.562 0.236
