-0.040 -0.374
0.988 0.995
0.990 1.012
-0.288 -0.702
0.135 0.041
-0.405 0.117
0.296 -0.585
0.378 0.089
0.808 -0.001
0.279 0.699
0.364 -0.227
0.263 0.419
-0.137 -0.274
0.249 -0.430
-0.257 -0.663
-0.389 0.343
-0.364 -0.150
0.387 0.315
0.257 0.305
-0.187 0.099
