-0.039 0.375
-1.004 -0.997
-1.007 -1.006
-0.042 0.011
0.436 -0.134
-0.272 0.258
0.150 -0.419
0.872 -0.120
-0.318 -0.351
0.037 -0.332
0.683 0.060
-0.686 0.387
-0.124 0.607
0.145 0.506
-0.920 0.103
0.905 0.892
0.335 -0.897
-0.430 0.310
0.344 0.491
-0.031 -0.466
