0.327 -0.068
1.000 0.983
1.014 0.989
0.847 -0.277
-0.148 0.814
-0.195 0.162
-0.288 -0.280
0.217 -0.645
-0.131 0.044
0.139 0.217
0.554 0.012
-0.378 -0.048
-0.696 0.162
0.035 0.476
-0.519 0.474
-0.164 0.475
-0.299 -0.374
-0.803 -0.360
0.645 -1.034
-0.226 -0.210
