-0.121 -0.120
-0.993 -1.009
-0.991 -0.991
0.317 0.124
-0.135 0.474
0.795 -0.002
-0.077 0.235
0.265 0.377
0.158 -0.315
-0.206 -0.308
-0.142 0.847
0.455 0.397
-0.264 -0.596
-0.277 0.300
0.218 0.288
-0.616 -0.241
-0.362 -0.461
-0.058 0.166
-0.005 -0.365
0.249 0.210
