0.118 0.244
1.015 0.993
1.000 0.999
-0.139 -0.502
-0.837 -0.315
-0.673 0.660
0.405 -0.207
0.671 0.000
-0.062 -0.781
-0.497 0.580
0.310 -0.124
0.270 -0.012
-0.380 -0.137
-0.237 -0.121
0.164 0.661
-0.276 0.359
-0.209 -0.598
0.417 -0.449
0.246 0.257
0.017 -0.346
