0.229 0.070
-0.983 -0.998
-0.994 -0.998
0.410 0.098
0.307 1.451
-0.084 0.271
0.610 0.042
-1.146 -0.624
-0.104 -0.298
-0.110 -0.272
0.173 0.464
0.254 0.688
-0.075 -0.196
0.526 -0.028
0.237 -0.084
-0.391 0.190
0.014 0.013
0.937 0.225
0.090 0.098
-0.138 0.627
