-0.056 -0.160
0.992 0.994
0.997 1.005
0.503 0.050
0.309 -0.233
0.112 0.309
0.268 -0.251
-0.445 -0.290
0.296 -0.137
-0.919 0.057
0.397 0.117
-0.111 0.012
0.197 -0.081
-0.453 -0.389
-1.016 0.707
-0.292 0.569
-0.317 0.328
-0.013 -0.157
0.193 0.010
-0.125 -0.313
