0.564 -0.105
1.013 1.005
1.003 1.003
0.397 -0.588
-0.131 0.802
0.080 -0.235
-0.294 -0.052
-0.024 -0.499
1.245 -0.315
-0.104 0.493
0.019 -0.407
-0.968 -0.461
0.475 -0.401
0.108 -0.216
0.080 0.197
-0.629 -0.149
-0.087 0.259
0.192 -0.929
-0.409 0.500
-0.186 -0.194
