0.223 -0.171
-1.007 -0.996
-1.004 -1.003
-0.243 0.061
0.259 -0.175
0.639 -0.098
-0.685 0.208
-0.031 -0.263
-0.795 0.230
0.177 0.095
-0.545 -0.271
0.469 -0.410
0.096 0.430
0.631 0.021
0.350 0.035
0.221 0.163
0.105 0.283
0.149 -0.157
0.833 -0.274
-0.431 -0.385
