-0.422 0.050
-0.988 -1.012
-1.005 -1.003
1.157 -0.112
0.192 0.177
0.003 -0.465
0.496 0.032
0.212 0.833
0.497 -0.093
-0.758 -0.615
0.436 0.189
0.005 -0.110
-0.158 -0.657
-0.583 0.082
0.095 -0.401
-0.090 -0.382
-0.043 -0.084
0.054 -0.055
-0.013 -0.855
-0.572 -0.097
