-0.342 -0.334
-1.018 -0.997
-1.000 -0.993
0.314 0.142
0.391 0.315
0.139 -0.043
-0.005 -0.000
0.457 -0.460
-0.037 -0.210
0.106 -0.205
-0.086 -0.107
-0.034 0.008
0.273 0.368
0.181 -0.065
0.756 -0.056
0.867 0.298
-0.024 0.190
0.063 0.178
0.427 0.348
0.057 0.411
