0.588 0.088
1.010 1.007
0.990 0.991
-0.530 -0.065
-0.114 0.454
0.128 -0.135
-0.210 -0.541
0.184 0.043
-0.339 -0.116
0.279 -0.025
-0.367 -0.013
0.403 -0.691
0.495 0.321
0.476 -0.171
-0.019 -0.133
-0.196 0.058
0.172 -0.330
0.070 0.325
-0.831 0.930
-0.452 0.092
