0.201 0.033
-1.008 -0.988
-0.995 -0.994
-0.203 0.432
-0.186 0.235
-0.359 0.250
0.052 -0.421
0.251 -0.043
0.507 0.559
-0.545 0.241
-0.463 0.670
0.022 -0.319
1.045 0.705
-0.246 0.242
-1.265 -0.323
0.295 -0.051
0.253 -0.860
0.323 0.147
0.511 0.009
0.165 0.466
