-0.335 0.260
1.009 0.997
0.998 1.003
-0.376 -0.493
0.333 -0.067
-0.149 0.204
0.281 0.057
-0.125 0.015
0.151 -0.350
0.138 0.270
-0.382 -0.453
-0.691 0.067
-0.029 0.645
-0.032 -0.766
-0.273 0.605
-1.243 -0.566
0.686 -0.259
-0.400 0.023
-0.242 0.432
0.177 0.431
