-0.026 0.450
1.010 0.998
1.002 1.008
1.366 0.100
0.259 -0.073
0.249 0.578
0.071 -0.234
0.139 0.236
-0.384 0.263
-0.017 0.055
1.036 0.567
-0.323 -0.114
0.038 0.408
0.458 -0.180
0.473 0.053
-0.460 -0.263
-0.050 0.388
-0.112 -0.237
-0.493 0.193
0.158 -0.492
