0.526 -0.069
1.000 1.012
1.000 0.984
-0.074 0.113
0.368 -0.276
0.462 0.279
-0.073 -0.259
-0.345 0.912
-0.485 -0.115
-0.293 0.939
-0.169 -0.204
0.338 -0.326
-0.849 0.167
-0.086 0.448
0.331 -0.223
-0.339 0.380
-0.008 -0.064
0.017 -0.021
-0.095 0.122
-0.356 -0.341
