-0.281 -0.010
0.987 0.994
1.009 1.022
0.445 -0.014
0.093 0.024
-0.458 0.527
0.107 -0.248
0.904 -0.962
0.345 -0.158
-0.258 -0.458
0.012 0.652
0.668 -0.104
0.528 -0.738
0.542 -0.035
-0.359 -0.465
0.184 -0.204
-0.163 0.120
0.287 0.214
-0.588 -0.839
-0.262 0.522
