0.484 0.704
1.016 0.990
1.004 1.025
0.280 -0.826
-0.098 0.249
0.164 0.445
-0.272 -0.198
0.546 0.491
0.049 -0.068
0.123 -0.188
-0.242 0.003
0.070 0.641
0.356 -0.460
-0.599 -0.402
-0.629 -0.348
-0.131 -0.065
-0.075 0.145
0.162 -0.441
-0.077 0.249
0.435 1.064
