0.151 0.250
1.003 0.997
1.010 1.004
-0.679 -0.502
-0.316 0.304
0.196 -0.089
-0.144 -0.013
-0.092 0.404
-0.092 -0.155
-0.159 0.074
0.091 -0.332
-0.338 0.342
-0.548 -0.068
-0.412 -0.111
-0.081 0.306
0.030 0.049
0.500 -0.100
-0.454 0.029
0.530 0.535
-0.172 0.152
