0.134 0.178
1.019 1.002
1.008 0.994
-0.138 -0.114
0.104 0.301
-0.164 -0.051
0.020 0.095
-0.516 0.273
0.005 0.282
0.665 -0.718
0.264 -0.665
0.112 0.555
0.281 -0.431
-0.048 0.016
-0.182 -0.029
-0.162 0.526
-0.433 -0.165
0.511 0.217
-0.262 1.169
-0.202 -0.126
