0.249 0.039
-0.988 -1.017
-0.994 -1.011
-0.155 -0.166
0.866 -0.214
-0.026 0.520
0.073 0.649
0.425 0.492
-0.205 -0.451
-0.304 1.072
-0.331 -0.039
0.341 -0.501
-0.288 0.452
-0.358 0.111
0.607 0.510
0.606 0.228
-0.509 0.342
-0.454 -0.136
-0.184 0.104
0.305 0.232
