0.389 0.028
-1.014 -0.998
-1.008 -1.011
0.406 0.724
0.208 0.159
0.206 -0.060
-0.042 -0.800
0.341 -0.162
-0.398 0.062
0.217 0.379
-0.279 -0.040
-0.246 0.137
1.131 -0.463
-0.159 0.646
-0.255 -0.554
0.163 -0.119
0.253 -0.383
0.956 0.160
-0.016 -0.016
-0.132 -0.052
