-0.576 -0.482
0.999 1.003
0.998 1.000
-1.273 -0.480
0.401 0.679
0.086 -0.189
0.219 0.052
-0.074 0.233
0.003 -0.031
0.394 0.375
-0.231 -0.322
0.022 0.247
-0.351 -0.322
-0.137 0.196
0.171 -0.022
-0.345 0.112
-0.626 -0.312
-0.092 0.087
0.579 -0.028
-0.110 0.567
