0.525 -0.335
-0.993 -0.992
-0.991 -0.999
0.782 0.186
0.113 0.565
-0.090 -0.620
-0.255 -0.034
0.176 -0.066
0.321 -0.299
0.333 -0.275
-0.383 -0.168
-0.164 0.241
1.208 -0.014
-0.054 0.563
0.453 0.032
0.250 0.601
-0.136 0.406
0.573 0.264
0.159 0.014
-0.277 0.394
