0.274 -0.303
-1.009 -1.004
-0.995 -1.015
-0.539 0.518
-0.146 0.327
-0.473 -0.388
-0.024 -0.207
0.015 -0.277
-0.353 0.014
-0.959 0.228
0.092 -0.179
0.182 -0.079
-0.344 -0.061
-0.410 -0.221
-0.224 -0.259
-0.369 -0.119
0.407 -0.228
0.436 0.066
-0.375 -0.089
-0.120 -0.593
