0.065 0.313
0.982 0.978
0.982 0.998
-0.105 -0.280
-0.316 -0.226
0.035 0.548
0.362 -0.314
0.113 0.051
-0.315 0.205
0.042 -0.675
-0.008 -0.101
-0.267 0.793
0.062 -0.099
0.683 -0.326
0.562 0.036
-0.038 0.244
0.118 -0.490
-0.315 0.150
-0.257 0.286
-0.351 -0.279
