0.059 1.007
-0.983 -1.013
-1.017 -1.009
-0.371 0.628
0.137 0.115
-0.173 -0.238
0.257 -0.147
0.076 -0.212
0.330 0.377
-0.166 0.004
-0.039 0.329
-0.016 -0.428
0.773 0.689
-0.304 0.529
0.464 -0.418
0.019 0.406
0.234 -0.310
-0.357 0.029
0.069 -0.110
-0.134 -0.326
