-0.127 0.530
-1.004 -1.001
-1.010 -0.993
-0.466 0.191
0.606 -0.336
-0.590 -0.577
0.010 0.128
0.608 -0.399
-0.795 0.489
-0.054 -0.434
0.358 0.507
0.278 -0.003
-0.691 -0.117
0.192 0.178
-0.054 -0.783
-0.221 0.186
0.070 -0.629
-0.560 -0.239
0.889 0.143
-0.239 -0.020
