1.016 0.981
1.001 0.991
0.224 0.133
0.774 -0.164
0.444 -0.254
-0.135 0.045
-0.047 0.226
-0.245 0.546
-0.601 0.255
0.037 -0.014
-0.233 -0.069
0.083 -0.320
-0.195 -0.172
-0.511 0.070
-1.202 -0.642
-0.172 0.227
-0.474 -0.476
0.391 -0.294
-0.207 0.207
-0.575 0.105
