-1.005 -1.015
-0.998 -1.001
-0.099 -0.098
-0.218 -0.026
0.467 0.388
-0.071 -0.351
0.243 0.372
0.337 -0.145
-0.029 0.408
-0.600 -0.117
-0.444 -0.866
-0.090 0.057
0.321 -0.361
-0.824 -0.083
0.172 0.475
-0.044 0.428
0.405 -0.894
0.041 -0.435
0.561 0.862
0.382 0.178
