-0.996 -0.997
-1.002 -0.993
-0.143 0.007
0.770 -0.633
-0.229 -0.624
0.424 0.469
-0.288 0.291
0.499 0.858
-0.276 0.473
1.284 0.177
-0.695 -0.767
-0.296 0.492
-0.013 -0.273
0.155 -0.302
0.134 0.177
-0.175 0.317
-0.575 0.631
-0.104 0.052
-0.053 0.346
-0.314 -0.496
