-1.008 -0.996
-1.002 -1.010
0.033 0.165
0.359 0.466
-0.299 -0.351
0.145 -0.194
-0.203 -0.024
-0.284 -0.293
-0.039 -0.149
-0.058 -0.655
0.113 -0.245
-0.428 -0.568
0.129 0.163
-0.168 0.014
0.212 -0.076
-0.178 0.388
-0.242 0.162
0.675 0.928
0.208 0.384
-0.552 -0.703
