1.008 1.005
0.996 1.003
-0.424 -0.563
0.628 -0.310
-0.053 0.443
0.228 0.119
-0.328 -0.757
0.937 0.688
-0.560 -0.099
0.020 -0.641
-0.611 0.077
0.083 -0.156
-0.140 -0.202
0.023 0.141
0.236 0.140
-0.234 -0.299
0.056 -0.068
0.326 -0.468
-0.109 0.203
-0.379 0.107
