-1.003 -1.000
-0.992 -0.997
-0.558 -0.161
-0.703 0.319
0.209 -0.544
0.474 0.604
0.133 -0.529
-0.182 0.088
0.249 0.148
0.008 -0.167
-0.089 0.094
0.206 0.298
-0.875 0.511
1.081 0.487
0.264 -0.021
0.764 0.331
0.157 -0.309
0.392 -0.176
0.281 0.006
0.045 0.442
