1.012 0.997
1.008 0.978
0.499 0.521
0.436 -0.676
0.007 0.472
-0.811 -0.026
-0.055 0.049
0.484 0.152
0.338 0.566
0.423 -0.091
-0.975 -0.668
0.735 -0.548
-0.061 0.367
-0.339 -0.683
-0.063 -0.357
-0.317 0.259
0.411 -0.132
0.398 0.054
0.572 0.484
-0.060 0.027
