-0.999 -1.011
-0.984 -0.985
-0.030 0.017
-0.255 0.395
-0.616 0.233
-0.088 0.026
-0.023 -0.812
0.079 0.052
0.541 -0.270
0.011 0.307
0.086 -0.144
0.073 0.644
0.186 0.483
-0.251 -0.793
-0.075 -0.442
0.230 -0.126
0.387 -0.037
-0.447 0.154
0.391 0.109
-0.150 0.191
