-1.005 -0.991
-0.995 -1.010
0.363 -0.259
-0.758 -0.301
-0.397 -0.152
0.068 -0.309
-0.636 -0.012
0.827 0.061
0.366 -0.699
-0.202 0.452
0.508 -0.095
0.203 0.016
0.068 0.011
0.088 -0.780
0.401 -0.361
0.381 -0.155
-0.298 0.899
-0.178 -0.215
-0.205 0.259
0.700 0.161
