-1.000 -0.986
-1.004 -0.996
-0.252 0.274
0.346 0.287
-0.059 0.350
-0.048 0.279
-0.159 -1.182
0.220 -0.595
0.373 -0.367
-0.168 -0.062
0.092 -0.148
0.078 0.381
0.288 -0.335
-0.211 -0.144
-1.124 -0.333
0.203 0.040
0.539 0.388
0.098 0.303
0.422 -0.271
0.114 0.457
