0.995 1.000
0.986 1.017
-0.072 -0.207
-0.196 0.208
0.389 -0.505
-0.287 0.297
0.187 -0.120
-0.102 -0.677
-1.018 0.169
0.052 0.230
-0.228 0.246
-0.002 0.497
0.131 -0.044
0.506 -0.210
0.133 -0.479
0.139 0.517
-0.403 -0.119
0.677 0.355
0.599 0.698
-0.427 -0.914
