-0.991 -0.994
-0.991 -0.990
-0.222 -0.501
0.376 0.130
0.482 -0.410
-0.102 0.017
0.070 0.033
0.428 0.130
0.428 -0.146
0.197 0.885
0.549 0.612
0.502 -0.095
-0.339 -0.086
0.138 0.171
0.215 0.039
-0.379 0.408
0.196 -0.684
0.170 -0.175
0.414 0.328
0.070 0.095
