1.007 0.993
1.003 1.005
-0.016 0.060
0.405 0.231
-0.334 0.873
-0.164 -0.206
0.005 -0.250
-0.441 -0.007
0.205 -0.080
0.280 0.439
0.802 0.573
-0.117 -0.424
-0.291 0.304
0.258 0.373
0.887 0.683
0.482 -0.054
0.041 -0.280
0.046 0.956
0.645 0.188
-0.095 -0.507
