1.006 0.994
0.979 0.991
-0.581 0.150
-0.441 0.356
0.392 -0.087
-0.594 -0.108
-0.688 0.550
-0.563 0.427
-0.575 -0.302
-0.333 0.117
-0.753 -0.736
0.177 -0.104
0.123 0.294
0.480 -0.106
-0.928 -0.639
0.502 0.486
0.304 -0.395
0.865 -0.236
-0.070 -0.624
1.679 -0.320
