1.006 0.996
0.998 0.991
-0.219 -1.148
0.192 0.225
-0.233 -0.587
0.398 0.127
-0.315 -0.476
0.155 -0.523
-0.229 -0.772
-0.133 -0.025
0.258 0.369
-0.139 -0.110
-0.448 -0.478
-0.612 -0.165
-0.267 0.324
0.159 0.505
-0.000 0.768
-0.289 0.112
-0.129 -0.234
-0.066 1.071
