-0.990 -1.003
-1.009 -0.985
-0.192 -0.382
0.036 -0.222
-0.572 -0.291
-1.114 -0.943
0.117 -0.373
-0.578 1.027
0.178 0.011
0.355 0.220
-0.233 -0.614
-0.029 -0.009
-0.106 -0.726
0.041 0.157
0.012 0.215
-0.062 0.319
-0.368 0.018
-0.094 0.383
-0.290 -0.485
-0.110 -0.053
