0.996 1.000
1.002 1.014
-0.076 0.211
0.116 -0.312
0.107 0.366
-0.138 -0.360
-0.291 -0.372
-0.230 -0.250
-0.175 -0.269
-0.242 -0.471
-0.001 -0.039
-0.501 -0.124
-0.140 0.063
-0.322 -0.022
-0.226 0.140
-0.221 -0.119
0.371 0.589
-0.384 -0.570
-0.155 0.010
0.370 -0.167
