-1.002 -0.999
-1.002 -1.010
-0.044 -0.150
0.866 0.819
-0.321 -0.056
-0.216 0.500
0.309 0.639
0.577 -0.229
0.006 -0.251
0.607 0.139
-0.640 -0.233
0.126 0.546
-0.304 0.233
0.262 -0.003
0.171 0.037
0.453 -0.559
-0.184 -0.143
-0.108 0.107
-0.168 -0.067
-0.336 -0.539
