-1.006 -0.987
-1.000 -1.006
0.498 0.654
-0.097 0.972
-0.216 -0.013
0.104 0.101
-0.313 -0.033
-0.019 0.923
0.797 -0.022
-0.694 0.121
0.309 -0.399
-0.272 0.769
-0.566 0.400
0.147 -0.440
-0.115 -0.019
0.689 0.313
-0.117 0.280
0.085 0.463
-0.054 0.051
-0.469 0.609
