0.977 0.999
1.007 1.015
0.291 0.194
0.279 -0.716
-0.592 -0.013
-0.352 0.452
-0.322 -0.503
0.473 0.057
-1.031 -0.336
0.210 0.197
0.285 0.154
0.387 -0.142
0.573 -1.079
-0.707 0.190
0.189 0.116
-0.426 -0.132
-0.155 -0.681
-0.118 0.621
-0.063 0.035
0.392 0.725
