-0.999 -1.008
-1.029 -1.005
0.619 0.396
0.392 -0.154
-0.140 -0.148
0.224 0.627
0.032 0.737
-0.020 -0.148
-0.263 -0.366
-0.010 0.182
1.115 0.288
-0.880 0.313
0.719 0.431
0.084 0.470
-0.041 -0.832
0.202 -0.208
0.034 -0.642
-0.379 0.198
0.609 0.027
-0.482 -0.036
