0.991 1.001
0.988 0.988
0.368 0.624
-0.346 -0.059
0.173 -0.028
0.546 -0.573
-0.740 0.035
1.298 -0.718
1.090 -0.192
0.297 -0.190
0.082 0.945
0.311 -0.208
-0.074 0.111
0.227 -0.239
-0.368 -0.112
0.583 0.094
-0.273 0.452
-0.287 0.183
-0.232 -0.340
-0.012 -0.521
