-0.985 -1.006
-1.001 -1.005
-0.589 0.447
0.167 0.015
0.039 0.522
0.099 0.628
-0.502 -0.111
0.263 0.223
-0.662 0.057
0.695 -0.165
-0.015 -0.206
-0.927 -0.094
-0.219 -0.541
0.003 -0.697
-0.957 -0.070
0.236 -0.073
0.029 0.621
-0.080 0.074
0.203 -0.278
-0.261 0.242
