1.011 1.013
0.980 1.006
-0.553 0.097
-0.285 0.390
0.687 0.072
-0.371 0.148
-1.046 -0.428
0.202 0.147
-0.455 0.609
-0.658 0.313
0.427 0.445
0.561 -0.523
-0.029 0.077
-0.130 0.556
0.449 -0.272
-0.453 -0.492
-0.021 -0.199
-0.291 -0.587
-0.066 -0.517
-0.194 -0.161
