-0.998 -1.002
-1.026 -1.010
0.445 0.526
0.338 0.090
-0.637 -0.962
0.032 0.310
0.490 0.117
0.212 -1.126
0.337 0.179
-0.396 0.737
0.599 0.392
0.315 0.684
-0.583 0.544
0.156 0.037
0.483 -0.126
0.501 0.287
0.528 0.059
-0.432 -0.602
-0.232 0.014
1.164 0.311
