1.015 1.003
1.010 0.999
0.475 0.264
0.214 0.535
0.294 -0.390
-0.263 0.209
-0.368 0.402
0.328 0.136
-0.254 -0.016
0.043 0.113
-0.721 0.692
0.008 0.484
-0.099 -0.200
0.111 0.804
0.285 -0.693
0.023 0.106
-0.485 0.109
0.120 0.134
-0.273 -0.512
0.328 0.026
