-1.000 -0.991
-1.006 -1.016
0.437 0.051
-0.329 0.271
0.342 -0.015
-0.641 -0.281
-0.514 0.563
-0.171 0.168
-0.613 0.509
0.005 0.532
0.239 -0.149
-0.151 -0.436
-0.452 0.117
0.118 -0.130
-0.287 0.671
-0.343 -0.485
0.065 -0.208
0.563 0.563
0.054 -0.543
0.192 -0.644
