-0.998 -0.984
-1.000 -0.987
-0.344 0.307
0.298 -0.366
-0.322 -0.469
1.032 -0.888
-0.353 -0.073
-0.129 0.109
0.316 -0.503
0.277 0.092
0.921 0.365
-0.357 -0.552
0.271 -0.520
0.181 0.100
-0.011 -0.033
-0.080 0.117
0.103 -0.016
0.183 -0.131
0.158 0.622
0.082 -0.253
