1.009 1.014
1.001 0.990
-0.212 0.204
-0.043 -0.469
-0.858 0.380
-0.020 0.275
-0.070 -0.398
-0.424 0.502
0.603 0.404
0.095 0.264
-0.301 0.207
-0.107 -0.188
-0.441 -0.219
-0.742 0.221
-0.335 -0.213
-0.303 -0.154
-0.876 0.157
0.279 -0.019
0.034 -0.049
0.185 0.469
