-1.009 -1.010
-1.022 -0.991
0.114 -0.760
-0.456 -0.261
0.124 -0.099
-0.029 -0.311
-0.258 0.749
0.481 -0.074
0.666 0.214
-0.137 -0.052
0.080 0.022
-0.123 -0.385
0.218 0.064
-0.216 -0.297
-0.698 -0.226
-0.480 0.077
0.002 -0.372
0.012 0.938
-0.546 0.459
0.327 0.193
