-0.998 -1.005
-0.970 -0.986
0.348 0.601
0.310 0.707
-0.238 0.410
0.291 -0.191
0.341 -0.100
0.090 0.426
-0.287 0.386
-0.006 0.826
0.371 0.090
0.303 0.529
0.231 -0.356
-0.056 0.089
0.230 0.489
0.331 -0.135
0.140 0.288
-0.076 -1.014
-0.369 -0.387
-0.669 0.225
