1.020 0.988
1.013 1.013
0.370 -0.301
-1.020 0.404
0.367 -0.593
-0.585 0.095
0.471 -0.011
-0.395 0.385
0.022 0.046
0.292 0.571
-0.039 -1.020
-0.006 0.063
0.535 0.312
0.264 0.322
0.554 -0.362
0.436 0.205
0.746 -0.151
-0.503 -0.311
0.157 -0.157
-0.051 -0.437
