-0.994 -0.994
-0.983 -0.998
-0.059 -0.141
-0.662 -0.211
1.013 -0.641
-0.520 0.520
0.258 -0.147
-0.551 -1.028
0.067 0.103
0.360 0.092
-0.199 -0.211
0.118 0.569
0.385 0.073
0.181 0.247
0.625 -0.431
-0.075 -0.244
0.104 0.341
-0.444 -0.630
-0.296 -0.286
0.110 0.120
