0.999 0.997
1.002 1.005
-0.173 0.734
-0.411 -0.209
0.080 -0.256
-0.358 -0.200
0.613 0.025
-0.139 0.048
-0.563 -0.036
-0.382 0.139
0.044 -0.336
-0.439 -0.072
0.094 -0.064
-0.147 0.478
-0.893 0.106
0.989 0.093
0.326 0.990
0.047 0.522
0.161 -0.029
-0.664 0.245
