0.985 1.004
0.987 1.003
0.942 0.542
0.223 -0.023
-0.079 0.849
-0.551 -0.989
0.180 0.358
0.654 -0.261
0.137 0.088
0.165 -0.240
0.254 0.255
0.019 0.166
0.771 -0.105
-0.625 -0.294
0.173 0.121
-0.256 -0.306
0.288 0.038
0.231 0.102
-0.098 -0.391
-0.121 -0.059
