1.002 0.997
1.008 0.995
0.206 0.075
-0.252 -1.214
-0.358 -0.203
0.689 -0.095
-0.017 0.578
0.658 -0.115
0.225 0.145
-0.265 -0.187
0.401 -1.007
0.670 0.255
0.430 -0.002
0.142 0.396
-0.398 -0.274
-0.420 -0.437
0.063 0.327
0.701 -0.578
-0.874 0.124
-0.288 0.275
