1.003 1.005
1.009 1.009
0.952 0.281
0.493 -0.014
-0.283 -0.295
0.226 -0.160
-0.389 0.584
-0.921 -0.537
-0.044 0.495
0.663 0.025
-0.372 0.295
-0.342 0.005
-0.531 0.685
0.544 0.492
0.309 -0.095
0.308 -0.395
-0.213 -0.310
-0.188 0.534
-0.519 -0.475
-0.305 0.216
