1.018 1.000
1.008 1.009
-0.148 -0.226
-0.514 -0.541
0.448 0.998
0.399 -0.177
-0.188 -0.243
-0.542 -0.812
-0.117 0.635
0.371 -0.115
-0.067 -0.076
0.298 -0.114
0.815 0.284
-0.139 -0.648
-0.067 0.432
0.037 0.246
-0.505 -0.237
0.157 -0.661
-0.185 -0.131
-0.603 -0.672
