-0.999 -0.981
-1.000 -0.988
0.986 0.221
0.153 0.347
-0.549 0.008
-0.250 0.473
0.116 -0.005
-0.409 -0.301
-0.146 0.436
0.594 -0.151
0.028 0.205
-0.639 0.142
0.349 0.199
0.835 0.126
-0.302 0.313
-0.742 0.601
0.401 -0.112
-0.043 -0.351
-0.001 0.248
-0.087 -0.015
