1.035 1.012
1.003 1.009
-0.797 0.090
-0.339 0.349
0.044 -0.340
-0.083 0.146
-0.651 0.782
-0.290 -1.077
-0.120 0.480
0.151 -0.059
-0.080 -0.090
-0.552 0.040
-0.056 0.244
-0.038 -0.101
0.254 0.423
0.608 0.427
0.014 0.181
-0.321 0.281
0.153 -0.423
0.515 0.569
