0.998 1.004
0.994 1.003
-0.301 0.118
-0.276 -0.281
-0.028 0.497
0.569 0.077
0.321 -0.630
-0.198 -0.118
-0.672 -0.277
-0.274 -0.559
0.233 -0.087
-0.018 -0.463
-0.502 0.306
-0.001 -0.443
0.698 -0.535
0.340 -0.689
0.110 -0.098
0.644 1.036
-0.274 0.048
-0.342 -0.237
