-0.997 -1.012
-1.005 -1.017
-0.129 -0.001
-0.553 0.368
0.133 0.371
-0.338 -0.481
0.006 0.275
0.454 -0.009
0.111 0.557
0.179 0.074
0.097 -0.793
0.259 0.310
-0.340 0.484
0.069 -0.631
0.465 0.495
0.263 0.450
-0.125 -0.213
-0.298 0.611
0.382 -0.048
-0.342 0.347
