-0.991 -1.007
-0.999 -1.003
-0.005 -0.375
0.031 0.217
0.213 -0.182
-0.592 0.185
0.633 -0.517
-0.143 0.300
0.375 -0.020
0.900 0.558
-0.742 -0.497
-0.018 -0.335
0.181 0.421
-0.188 0.218
-0.532 0.449
-0.189 0.319
0.405 -0.032
-0.152 -0.582
-0.708 -0.559
0.022 0.078
