-1.030 -1.000
-1.006 -1.001
0.160 0.340
0.082 0.320
-0.057 0.335
0.078 -0.629
0.298 -0.356
0.001 0.295
0.305 -0.423
-0.121 -0.076
0.231 -0.361
-0.130 0.118
0.098 0.053
0.347 -0.775
-0.114 -0.377
-0.447 0.166
-0.202 -0.203
0.400 -0.294
0.671 -0.041
-0.488 0.126
