-1.015 -1.001
-1.001 -0.989
-0.322 0.291
0.025 -0.043
0.307 0.377
0.634 -0.366
0.467 -0.239
-0.698 0.167
0.626 0.469
-0.143 0.273
-0.327 -0.033
-0.724 -0.006
-0.654 0.294
0.357 0.383
-0.206 -0.739
0.373 0.311
-0.687 0.144
-0.169 -0.434
-0.159 -0.082
0.432 -0.242
