-1.013 -1.014
-1.011 -0.997
-0.002 -0.108
-0.080 0.484
0.194 0.161
-0.534 0.365
-0.471 -0.069
0.670 0.091
0.472 -0.144
-0.184 -0.380
-0.184 -0.072
-0.128 0.125
0.307 0.330
0.918 -0.114
-0.078 0.140
0.013 0.092
-0.345 0.456
0.619 -0.366
0.018 0.637
0.452 -0.187
