-0.995 -1.009
-1.005 -1.010
-0.026 -0.506
0.098 0.280
0.115 0.577
-0.240 -0.875
-1.077 -0.220
-0.008 -0.241
-0.468 0.785
-0.170 -0.117
0.395 0.232
0.459 -1.224
-0.127 0.516
-0.194 -0.472
-0.459 0.500
0.535 -0.077
-0.264 -0.372
-0.083 -0.853
-0.493 -0.636
0.129 0.393
