-1.016 -1.015
-1.001 -1.011
-0.211 0.740
0.547 0.103
-0.789 0.193
0.190 -0.068
0.160 0.160
0.414 -0.020
0.547 -0.303
0.554 0.387
0.000 0.152
0.777 0.122
0.398 -0.276
-0.320 -0.268
-0.272 0.428
-0.055 -0.013
-0.295 0.038
0.243 0.194
-0.467 0.088
-0.814 0.040
