-1.018 -1.008
-0.996 -0.989
0.050 0.450
-0.590 0.349
-0.390 -0.612
0.473 0.285
0.077 -0.961
-0.589 0.739
-0.310 0.420
0.418 -0.020
0.033 0.543
-0.203 0.426
-0.052 -0.944
0.304 0.168
0.113 0.258
0.009 0.216
0.505 -0.500
0.162 0.183
0.914 -0.550
0.624 1.048
