-0.986 -0.995
-0.986 -1.007
-0.030 -0.294
-0.109 0.121
0.840 -0.729
-0.064 -0.000
-0.391 -0.447
0.012 -0.511
-0.200 0.162
-0.086 0.028
0.520 0.166
0.485 0.289
0.282 -0.081
-0.241 -0.206
0.104 -0.149
-0.183 -0.429
-0.117 -0.302
-0.480 -0.099
-0.605 0.648
-0.037 -0.429
